<?xml version="1.0" encoding="utf-8"?>
<!-- Generator: Adobe Illustrator 19.1.0, SVG Export Plug-In . SVG Version: 6.00 Build 0)  -->
<svg version="1.1" id="Layer_1" xmlns="http://www.w3.org/2000/svg" xmlns:xlink="http://www.w3.org/1999/xlink" x="0px" y="0px"
	 viewBox="-41 164.9 512 512" style="enable-background:new -41 164.9 512 512;" xml:space="preserve">
<style type="text/css">
	.st0{fill:#777777;}
</style>
<g>
	<g>
		<g>
			<path class="st0" d="M265.9,555.9c-6.7,6.7-15.2,11.3-24.5,13.4l-94.2,20.4c-15.8,3.4-33-0.9-45.4-13.4c-2.7-2.7-5-5.6-6.9-8.7
				H37.3c-9.1,0-16.5-7.4-16.5-16.5s7.4-16.5,16.5-16.5h50.5c0.2-1.2,0.4-2.5,0.6-3.7l10-46H37.3c-9.1,0-16.5-7.4-16.5-16.5
				c0-9.1,7.4-16.5,16.5-16.5h68.3l3.3-15.2c2-9.3,6.6-17.8,13.4-24.5l10-10H37.3c-9.1,0-16.5-7.4-16.5-16.5
				c0-9.1,7.4-16.5,16.5-16.5h127.9l49.7-49.7H37.3c-9.1,0-16.5-7.4-16.5-16.5c0-9.1,7.4-16.5,16.5-16.5h210.5
				c9.1-9.1,69-69,78.4-78.4c3-3,6.2-5.8,9.6-8.4c-0.6-19.4-16.5-35-36.1-35H-0.6c-19.9,0-36.1,16.2-36.1,36.1v439.8
				c0,19.9,16.2,36.1,36.1,36.1h300.4c19.9,0,36.1-16.2,36.1-36.1V486C329.3,492.6,274.9,546.9,265.9,555.9z"/>
			<path class="st0" d="M446.6,231.6c-13-13-30.2-20.1-48.5-20.1c-18.3,0-35.6,7.1-48.5,20.1c-10.4,10.4-194.2,194.2-204,204
				c-2.2,2.2-3.8,5-4.5,8.2c-2.7,12.6-18.1,83.5-20.4,94.2c-1.2,5.4-4.4,16-0.4,20c4,4,14.5,0.8,20-0.4
				c12.6-2.7,83.6-18.1,94.2-20.4c3.2-0.7,6-2.3,8.2-4.5C465,310.3,449.8,326.2,455.2,318.2c7.5-11.2,11.5-24.4,11.5-38.1
				C466.7,261.8,459.6,244.5,446.6,231.6z M158.3,519.9l12.7-58.8l46.1,46.1L158.3,519.9z"/>
		</g>
	</g>
</g>
</svg>
